{
  "$schema": "http://schema.management.azure.com/schemas/2015-01-01/deploymentTemplate.json#",
  "contentVersion": "1.0.0.0",
  "variables": {
    "serviceDomainName": "[concat('l200', uniqueString(resourceGroup().id))]",
    "servicePackageLink": "https://cslabs.blob.core.windows.net/l200/PaaSDev.L200.CS.2/PaaSDev.L200.CS.2.cspkg?st=2018-05-09T21%3A21%3A00Z&se=2030-05-10T21%3A21%3A00Z&sp=rl&sv=2017-04-17&sr=c&sig=hxfHAyUte72zIdrDvReTS8vsn1Y92RDmyU%2FT3fXLXu8%3D",
    "serviceConfigurationLink": "https://cslabs.blob.core.windows.net/l200/PaaSDev.L200.CS.2/ServiceConfiguration.Cloud.cscfg?st=2018-05-09T21%3A21%3A00Z&se=2030-05-10T21%3A21%3A00Z&sp=rl&sv=2017-04-17&sr=c&sig=hxfHAyUte72zIdrDvReTS8vsn1Y92RDmyU%2FT3fXLXu8%3D",
    "deploymentLabel": "CSL200Lab2"
  },
  "resources": [
    {
      "apiVersion": "2014-06-01",
      "type": "Microsoft.ClassicCompute/domainNames",
      "name": "[variables('serviceDomainName')]",
      "location": "[resourceGroup().location]",
      "resources": [
        {
          "apiVersion": "2014-06-01",
          "name": "production",
          "type": "deploymentSlots",
          "dependsOn": [
            "[resourceId('Microsoft.ClassicCompute/domainNames', variables('serviceDomainName'))]"
          ],
          "properties": {
            "packageLink": {
              "uri": "[variables('servicePackageLink')]"
            },
            "deploymentLabel": "[variables('deploymentLabel')]",
            "ConfigurationLink": {
              "uri": "[variables('serviceConfigurationLink')]"
            },
            "deploymentOptions": "StartDeployment"
          }
        }
      ]
    }
  ]
}